{
  "cardstacks": {
    "result": [
      {
        "card_stacks": [
          {
            "id": "3de3ad30-83d6-11e6-a13f-018936a8adc1",
            "title": "真誠可愛的大男孩 費南德茲永別了！",
            "desc": "美國職棒大聯盟邁阿密馬林魚隊的王牌投手費南德茲，9月25日不幸因船難驟逝，震驚體壇，眾多球星好友及球迷都不敢置信，悲傷不已。回顧他的棒球路一路崎嶇，才剛準備要大放異彩，卻黯然隕落。",
            "category": "",
            "property": "news",
            "region": "TW",
            "editor": "VH3VTMVEPQK5FUFCQIOELX7VOU",
            "poll_uuid": "",
            "ybrain_uuid": "",
            "tumblr_tag": "",
            "status": "active",
            "create_time": 1474886686,
            "modified_time": 1474886809,
            "bg_image": {
              "url": "http://l.yimg.com/dh/ap/default/160926/0926card1.jpg",
              "source": "",
              "source_url": ""
            },
            "thumbnail": "http://l.yimg.com/dh/ap/default/160926/0926card2.jpg",
            "profile_id": "u160029",
            "internal": 1,
            "tags": [
              "新聞",
              "運動"
            ],
            "user": {
              "guid": "VH3VTMVEPQK5FUFCQIOELX7VOU",
              "nickname": "Yahoo 奇摩新聞",
              "icon": "https://s.yimg.com/yr/usericon/c61800c8-2d40-4740-b27c-e8396987998c.jpeg",
              "profile_id": "u160029"
            },
            "promote": 0,
            "liked": 22
          },
          {
            "id": "83775e20-83bb-11e6-b1c9-2727e3ec36ef",
            "title": "五分鐘認識「他」的名字：新海誠",
            "desc": "《你的名字》短短28天衝破百億日幣票房，究竟動畫導演新海誠有何魅力？一起用五分鐘來認識這位最夯的新生代動畫導演吧！",
            "category": "",
            "property": "news",
            "region": "TW",
            "editor": "YJFRYMUHEZKVEBNASU6KLT47I4",
            "poll_uuid": "",
            "ybrain_uuid": "",
            "tumblr_tag": "",
            "status": "active",
            "create_time": 1474875206,
            "modified_time": 1474890082,
            "bg_image": {
              "url": "https://scontent.xx.fbcdn.net/v/t1.0-9/14370037_765901986915615_4816768792715726499_n.jpg?oh=6166b011b7b1d6a65dd76fac9c3f931e&oe=586F8AE4",
              "source": "iFilm傳影互動",
              "source_url": ""
            },
            "thumbnail": "http://images.ciatr.jp/2016/01/21171635/20151211-00010001-trendnewsn-000-1-view-640x427.jpg",
            "profile_id": "u160019",
            "internal": 0,
            "tags": [
              "電影"
            ],
            "user": {
              "guid": "YJFRYMUHEZKVEBNASU6KLT47I4",
              "nickname": "艾莫西",
              "icon": "https://s.yimg.com/yr/usericon/ba057d23-a8e2-46fd-8fcf-838aadfb2c6f.jpeg",
              "profile_id": "u160019"
            },
            "promote": 0,
            "liked": 4
          },
          {
            "id": "f1950ee0-7e50-11e6-a4b7-ab619ef5c056",
            "title": "血汗白色巨塔！醫師納勞基法，然後呢？",
            "desc": "衛福部預計在民國108年前，將住院和專科醫師納入勞基法保障，並逐步擴及到全數醫師。近日，在野黨要求提早2年入法，卻傳出更大反對聲浪，到底存在哪些爭議呢？",
            "category": "",
            "property": "news",
            "region": "TW",
            "editor": "VH3VTMVEPQK5FUFCQIOELX7VOU",
            "poll_uuid": "",
            "ybrain_uuid": "",
            "tumblr_tag": "",
            "status": "active",
            "create_time": 1474279679,
            "modified_time": 1474279682,
            "bg_image": {
              "url": "https://s2.yimg.com/lo/api/res/1.2/jpttGQStbGTHUjuf3NoBmQ--/YXBwaWQ9dHdhYnVuZXdz/http://l.yimg.com/dh/ap/default/160919/iStock_000037769314_XXXLarge.jpg",
              "source": "",
              "source_url": ""
            },
            "thumbnail": "https://s1.yimg.com/lo/api/res/1.2/vLN4xm3fwjqPfvEd1pVOTw--/YXBwaWQ9dHdhYnVuZXdz/http://l.yimg.com/dh/ap/default/160919/iStock_000012180483_Full.jpg",
            "profile_id": "u160029",
            "internal": 1,
            "tags": [
              "新聞",
              "健康"
            ],
            "user": {
              "guid": "VH3VTMVEPQK5FUFCQIOELX7VOU",
              "nickname": "Yahoo 奇摩新聞",
              "icon": "https://s.yimg.com/yr/usericon/c61800c8-2d40-4740-b27c-e8396987998c.jpeg",
              "profile_id": "u160029"
            },
            "promote": 0,
            "liked": 11
          },
          {
            "id": "1b5a5830-7dbf-11e6-bf04-3534231e8c0e",
            "title": "《BJ有喜》金句大補帖",
            "desc": "BJ40而不惑？！快來看熟女私密日記裡都寫了哪些金句？",
            "category": "",
            "property": "news",
            "region": "TW",
            "editor": "7VVPKSTAHHPPPDAV2WY366FSRI",
            "poll_uuid": "",
            "ybrain_uuid": "",
            "tumblr_tag": "",
            "status": "active",
            "create_time": 1474217043,
            "modified_time": 1474596666,
            "bg_image": {
              "url": "http://diymag.com/media/img/Film/B/Bridget-Jones-Baby/_1500xAUTO_crop_center-center_75/Bridget_Jones_Trio_1Sht_Teaser_UK.jpg",
              "source": "《BJ有喜》電影海報",
              "source_url": ""
            },
            "thumbnail": "http://wallpapersdsc.net/wp-content/uploads/2016/08/Bridget-Jones-Baby-High-Definition.jpg",
            "profile_id": "u160024",
            "internal": 0,
            "tags": [
              "電影",
              "BJ有喜",
              "Bridget Joness Baby",
              "ymovie6223"
            ],
            "user": {
              "guid": "7VVPKSTAHHPPPDAV2WY366FSRI",
              "nickname": "雀雀",
              "icon": "https://s.yimg.com/yr/usericon/a4a70eb3-98d0-4ded-90a2-eae4960a89c6.jpeg",
              "profile_id": "u160024"
            },
            "promote": 1,
            "liked": 2
          },
          {
            "id": "8c2dd8b0-7b4a-11e6-baa4-df3a194f90be",
            "title": "政治與人性，金獎導演奧利佛史東的五部經典電影",
            "desc": "近年不斷推出新作的奧利佛史東，本月又帶來政治驚悚新作《神鬼駭客：史諾登》，讓我們藉機回顧他的經典作品。",
            "category": "",
            "property": "news",
            "region": "TW",
            "editor": "KBPLKMIGQLGG3I7F476TYHLWMM",
            "poll_uuid": "",
            "ybrain_uuid": "",
            "tumblr_tag": "",
            "status": "active",
            "create_time": 1473947079,
            "modified_time": 1474596670,
            "bg_image": {
              "url": "https://s.yimg.com/lo/api/res/1.2/dQC7gJtoq32cHHrIhZ_JrQ--/YXBwaWQ9dHdhYnVuZXdz/https://cdn1.lockerdome.com/uploads/f2746fe0377133626efbd92dbb584998c8362fc310847cf4f254a1dce7110177_facebook",
              "source": "",
              "source_url": ""
            },
            "thumbnail": "https://s.yimg.com/lo/api/res/1.2/dQC7gJtoq32cHHrIhZ_JrQ--/YXBwaWQ9dHdhYnVuZXdz/https://cdn1.lockerdome.com/uploads/f2746fe0377133626efbd92dbb584998c8362fc310847cf4f254a1dce7110177_facebook",
            "profile_id": "u160025",
            "internal": 0,
            "tags": [
              "電影",
              "ymovie6383"
            ],
            "user": {
              "guid": "KBPLKMIGQLGG3I7F476TYHLWMM",
              "nickname": "橘貓",
              "icon": "https://s.yimg.com/yr/usericon/b7af6a32-bce1-418c-a8f6-cc3bbea97f6c.jpeg",
              "profile_id": "u160025"
            },
            "promote": 1,
            "liked": 4
          },
          {
            "id": "e3b0f2b0-7a47-11e6-9c35-d99f5a03619d",
            "title": "颱風天就是要看劇啊～不然要幹嘛",
            "desc": "中秋連假行程遭颱風攪亂？不想外出溼答答打算窩在家，快看小編推薦10部好劇，讓你一次看個夠。",
            "category": "",
            "property": "news",
            "region": "TW",
            "editor": "VH3VTMVEPQK5FUFCQIOELX7VOU",
            "poll_uuid": "",
            "ybrain_uuid": "",
            "tumblr_tag": "",
            "status": "active",
            "create_time": 1473835986,
            "modified_time": 1473860743,
            "bg_image": {
              "url": "https://s3.yimg.com/lo/api/res/1.2/YRnwKNHEMDkWG1WgtMzjhA--/YXBwaWQ9dHdhYnVuZXdz/http://l.yimg.com/dh/ap/default/160913/01.png",
              "source": "",
              "source_url": ""
            },
            "thumbnail": "https://s3.yimg.com/lo/api/res/1.2/YRnwKNHEMDkWG1WgtMzjhA--/YXBwaWQ9dHdhYnVuZXdz/http://l.yimg.com/dh/ap/default/160913/01.png",
            "profile_id": "u160029",
            "internal": 1,
            "tags": [
              "新聞",
              "娛樂"
            ],
            "user": {
              "guid": "VH3VTMVEPQK5FUFCQIOELX7VOU",
              "nickname": "Yahoo 奇摩新聞",
              "icon": "https://s.yimg.com/yr/usericon/c61800c8-2d40-4740-b27c-e8396987998c.jpeg",
              "profile_id": "u160029"
            },
            "promote": 0,
            "liked": 28
          },
          {
            "id": "d9b7e0c0-79ca-11e6-a457-33ff6ec62c67",
            "title": "臥虎藏龍的電影魂－－台灣國際名導李安。",
            "desc": "日前獲國際廣電大會頒發「年度卓越國際榮譽獎」的台灣名導李安，始終沒忘記電影一直在告訴他，它要改變了！",
            "category": "",
            "property": "news",
            "region": "TW",
            "editor": "2QUDICWBH4FNMUDO435OBU3CXU",
            "poll_uuid": "",
            "ybrain_uuid": "",
            "tumblr_tag": "",
            "status": "active",
            "create_time": 1473782282,
            "modified_time": 1474596680,
            "bg_image": {
              "url": "https://s.yimg.com/vu/movies/fp/mpost/63/56/6356.jpg",
              "source": "Yahoo奇摩電影",
              "source_url": "https://s.yimg.com/vu/movies/fp/mpost/63/56/6356.jpg"
            },
            "thumbnail": "https://s.yimg.com/vu/movies/fp/mpost/63/56/6356.jpg",
            "profile_id": "u160030",
            "internal": 0,
            "tags": [
              "電影"
            ],
            "user": {
              "guid": "2QUDICWBH4FNMUDO435OBU3CXU",
              "nickname": "幕後黑手",
              "icon": "https://s.yimg.com/yr/usericon/6e8ee2e5-9878-4c76-89ef-87328b950de4.jpeg",
              "profile_id": "u160030"
            },
            "promote": 1,
            "liked": 11
          },
          {
            "id": "0f2db730-798e-11e6-920f-b502cf2cd595",
            "title": "台灣觀光只剩吃？ 適合帶外國朋友去做的7件事",
            "desc": "一提到台灣觀光，推薦行程不外乎就是逛夜市、參觀101，但除此之外，文化體驗更能讓遊客認識台灣之美，下次不妨帶著外國朋友一起試試看吧！",
            "category": "",
            "property": "news",
            "region": "TW",
            "editor": "VH3VTMVEPQK5FUFCQIOELX7VOU",
            "poll_uuid": "",
            "ybrain_uuid": "",
            "tumblr_tag": "",
            "status": "active",
            "create_time": 1473756172,
            "modified_time": 1473822052,
            "bg_image": {
              "url": "http://l.yimg.com/dh/ap/default/160913/6792336724_245317057b_z.jpg",
              "source": "",
              "source_url": ""
            },
            "thumbnail": "http://l.yimg.com/dh/ap/default/160913/6792336724_245317057b_z.jpg",
            "profile_id": "u160029",
            "internal": 1,
            "tags": [
              "新聞"
            ],
            "user": {
              "guid": "VH3VTMVEPQK5FUFCQIOELX7VOU",
              "nickname": "Yahoo 奇摩新聞",
              "icon": "https://s.yimg.com/yr/usericon/c61800c8-2d40-4740-b27c-e8396987998c.jpeg",
              "profile_id": "u160029"
            },
            "promote": 0,
            "liked": 30
          },
          {
            "id": "483f5460-7985-11e6-920f-b502cf2cd595",
            "title": "看電影過中秋 強檔院線片大集合",
            "desc": "中秋連假接近尾聲，已經開始無所事事了嗎？Yahoo小編替你整理近期強檔電影，有時間的話不妨就去電影院吹吹冷氣、打發時間吧！",
            "category": "",
            "property": "news",
            "region": "TW",
            "editor": "VH3VTMVEPQK5FUFCQIOELX7VOU",
            "poll_uuid": "",
            "ybrain_uuid": "",
            "tumblr_tag": "",
            "status": "active",
            "create_time": 1473752403,
            "modified_time": 1473754316,
            "bg_image": {
              "url": "https://s.yimg.com/vu/movies/fp/mpost/64/55/6455.jpg",
              "source": "",
              "source_url": ""
            },
            "thumbnail": "http://l.yimg.com/dh/ap/default/160913/0913_2.png",
            "profile_id": "u160029",
            "internal": 1,
            "tags": [
              "新聞"
            ],
            "user": {
              "guid": "VH3VTMVEPQK5FUFCQIOELX7VOU",
              "nickname": "Yahoo 奇摩新聞",
              "icon": "https://s.yimg.com/yr/usericon/c61800c8-2d40-4740-b27c-e8396987998c.jpeg",
              "profile_id": "u160029"
            },
            "promote": 0,
            "liked": 9
          },
          {
            "id": "64a47e70-7672-11e6-bd21-519957acb6b8",
            "title": "台灣難波萬！「電競」產業大解密",
            "desc": "LOL世界大賽即將於九月底開打，日前蔡英文總統出席AHQ、閃電狼出賽行前會，替選手加油打氣。而你知道什麼是「電競」嗎？電競產業對台灣又有什麼樣的影響？快來看看吧！",
            "category": "",
            "property": "news",
            "region": "TW",
            "editor": "VH3VTMVEPQK5FUFCQIOELX7VOU",
            "poll_uuid": "",
            "ybrain_uuid": "",
            "tumblr_tag": "",
            "status": "active",
            "create_time": 1473414436,
            "modified_time": 1473416477,
            "bg_image": {
              "url": "http://media.zenfs.com/zh_hant_tw/News/cna/20140817000044M.jpg",
              "source": "",
              "source_url": ""
            },
            "thumbnail": "http://media.zenfs.com/zh_hant_tw/News/cna/20140817000044M.jpg",
            "profile_id": "u160029",
            "internal": 1,
            "tags": [
              "新聞"
            ],
            "user": {
              "guid": "VH3VTMVEPQK5FUFCQIOELX7VOU",
              "nickname": "Yahoo 奇摩新聞",
              "icon": "https://s.yimg.com/yr/usericon/c61800c8-2d40-4740-b27c-e8396987998c.jpeg",
              "profile_id": "u160029"
            },
            "promote": 0,
            "liked": 10
          },
          {
            "id": "18b96930-7659-11e6-afc4-b107989c85c9",
            "title": "金鐘掛保證！優質台劇大點名",
            "desc": "別再說台灣沒有好戲劇！第51屆金鐘獎昨日（8號）宣布入圍名單，多部優質台劇紛紛入圍，屆時絕對難分高下，而在你心目中看好哪一齣劇奪獎呢？",
            "category": "",
            "property": "news",
            "region": "TW",
            "editor": "VH3VTMVEPQK5FUFCQIOELX7VOU",
            "poll_uuid": "",
            "ybrain_uuid": "",
            "tumblr_tag": "",
            "status": "active",
            "create_time": 1473403572,
            "modified_time": 1473675011,
            "bg_image": {
              "url": "http://l.yimg.com/dh/ap/default/160908/d04.jpg",
              "source": "",
              "source_url": ""
            },
            "thumbnail": "http://l.yimg.com/dh/ap/default/160908/d04.jpg",
            "profile_id": "u160029",
            "internal": 1,
            "tags": [
              "新聞"
            ],
            "user": {
              "guid": "VH3VTMVEPQK5FUFCQIOELX7VOU",
              "nickname": "Yahoo 奇摩新聞",
              "icon": "https://s.yimg.com/yr/usericon/c61800c8-2d40-4740-b27c-e8396987998c.jpeg",
              "profile_id": "u160029"
            },
            "promote": 0,
            "liked": 12
          },
          {
            "id": "8f284410-7654-11e6-afc4-b107989c85c9",
            "title": "911恐攻15週年 後遺症有哪些？",
            "desc": "2001年兩架飛機撞擊紐約世貿雙塔的畫面，至今許多人仍記憶猶新。911事件堪稱近代死傷最慘烈的恐怖攻擊，後續更引發一連串國際局勢的重大變革，來看看這15年間911留下的後遺症。",
            "category": "",
            "property": "news",
            "region": "TW",
            "editor": "VH3VTMVEPQK5FUFCQIOELX7VOU",
            "poll_uuid": "",
            "ybrain_uuid": "",
            "tumblr_tag": "",
            "status": "active",
            "create_time": 1473401623,
            "modified_time": 1473406460,
            "bg_image": {
              "url": "http://media.zenfs.com/zh_hant_tw/News/awakeningtw/_-e1411b4020dc481eb787dbc251a9806c",
              "source": "",
              "source_url": ""
            },
            "thumbnail": "http://media.zenfs.com/zh_hant_tw/News/awakeningtw/_-e1411b4020dc481eb787dbc251a9806c",
            "profile_id": "u160029",
            "internal": 1,
            "tags": [
              "新聞"
            ],
            "user": {
              "guid": "VH3VTMVEPQK5FUFCQIOELX7VOU",
              "nickname": "Yahoo 奇摩新聞",
              "icon": "https://s.yimg.com/yr/usericon/c61800c8-2d40-4740-b27c-e8396987998c.jpeg",
              "profile_id": "u160029"
            },
            "promote": 0,
            "liked": 6
          },
          {
            "id": "1ead5b40-74e1-11e6-b702-6319d4ccee6d",
            "title": "永遠的台灣巨砲 陳金鋒生涯全記錄",
            "desc": "「很榮幸生在有陳金鋒的時代！」身為中華隊不動「第四番」的陳金鋒，在北京奧運後脫下國家隊的球衣後，今年也在9月18日正式引退，讓我們一起回顧他的棒球路。",
            "category": "",
            "property": "news",
            "region": "TW",
            "editor": "VH3VTMVEPQK5FUFCQIOELX7VOU",
            "poll_uuid": "",
            "ybrain_uuid": "",
            "tumblr_tag": "",
            "status": "active",
            "create_time": 1473242091,
            "modified_time": 1474163570,
            "bg_image": {
              "url": "http://l.yimg.com/dh/ap/default/160907/0907chen1.png",
              "source": "",
              "source_url": ""
            },
            "thumbnail": "http://l.yimg.com/dh/ap/default/160907/0907chen2.jpg",
            "profile_id": "u160029",
            "internal": 1,
            "tags": [
              "新聞",
              "運動"
            ],
            "user": {
              "guid": "VH3VTMVEPQK5FUFCQIOELX7VOU",
              "nickname": "Yahoo 奇摩新聞",
              "icon": "https://s.yimg.com/yr/usericon/c61800c8-2d40-4740-b27c-e8396987998c.jpeg",
              "profile_id": "u160029"
            },
            "promote": 0,
            "liked": 20
          },
          {
            "id": "749e5720-74dc-11e6-944d-b399d9e6fefc",
            "title": "「爸爸們本來就比較吃虧」《屍速列車》七句經典台詞",
            "desc": "你《屍速列車》了嗎？上映後引發網路熱烈討論的喪屍電影，成為這陣子大家必聊的話題，片中各個角色所顯現的價值觀，都可以從台詞中感受到，七大經典台詞你還記得嗎？",
            "category": "",
            "property": "news",
            "region": "TW",
            "editor": "VH3VTMVEPQK5FUFCQIOELX7VOU",
            "poll_uuid": "",
            "ybrain_uuid": "",
            "tumblr_tag": "",
            "status": "active",
            "create_time": 1473240087,
            "modified_time": 1473240215,
            "bg_image": {
              "url": "https://s3.yimg.com/lo/api/res/1.2/_2.DAFtbOMILo7qQBPrXVg--/YXBwaWQ9dHdhYnVuZXdz/http://l.yimg.com/dh/ap/default/160907/0907card2.jpg",
              "source": "",
              "source_url": ""
            },
            "thumbnail": "https://s1.yimg.com/lo/api/res/1.2/7eGmEVw1JEiHhLKbKdNAnw--/YXBwaWQ9dHdhYnVuZXdz/http://l.yimg.com/dh/ap/default/160907/0907card1.png",
            "profile_id": "u160029",
            "internal": 1,
            "tags": [
              "電影",
              "娛樂"
            ],
            "user": {
              "guid": "VH3VTMVEPQK5FUFCQIOELX7VOU",
              "nickname": "Yahoo 奇摩新聞",
              "icon": "https://s.yimg.com/yr/usericon/c61800c8-2d40-4740-b27c-e8396987998c.jpeg",
              "profile_id": "u160029"
            },
            "promote": 0,
            "liked": 21
          },
          {
            "id": "c1c83eb0-74d9-11e6-8803-91e94a416c43",
            "title": "六個讓《薩利機長：哈德遜奇蹟》更好看的秘密",
            "desc": "由克林伊斯威特與湯姆漢克斯共同攜手的《薩利機長：哈德遜奇蹟》將於本週正式上映。除了真實事件外，電影裡還有更多有趣的秘密你不可不知。一起來成為超級影迷吧！",
            "category": "",
            "property": "news",
            "region": "TW",
            "editor": "YJFRYMUHEZKVEBNASU6KLT47I4",
            "poll_uuid": "",
            "ybrain_uuid": "",
            "tumblr_tag": "",
            "status": "active",
            "create_time": 1473238928,
            "modified_time": 1473257547,
            "bg_image": {
              "url": "https://s3.yimg.com/lo/api/res/1.2/DZH04rckO5gPOrNO_tajHg--/YXBwaWQ9dHdhYnVuZXdz/https://s.yimg.com/vu/movies/fp/mpost/64/55/6455.jpg",
              "source": "",
              "source_url": "華納電影"
            },
            "thumbnail": "https://s.yimg.com/lo/api/res/1.2/Vo8xDV.pAqVj7.R1U9949Q--/YXBwaWQ9dHdhYnVuZXdz/https://s.yimg.com/vu/movies/fp/mpho/15/20/71520.jpg",
            "profile_id": "u160019",
            "internal": 0,
            "tags": [
              "電影",
              "ymovie6455"
            ],
            "user": {
              "guid": "YJFRYMUHEZKVEBNASU6KLT47I4",
              "nickname": "艾莫西",
              "icon": "https://s.yimg.com/yr/usericon/ba057d23-a8e2-46fd-8fcf-838aadfb2c6f.jpeg",
              "profile_id": "u160019"
            },
            "promote": 0,
            "liked": 8
          },
          {
            "id": "54aa69e0-7432-11e6-911d-ef721a06610a",
            "title": "給你更多屍速列車的帥爸！七種孔劉一次擁有",
            "desc": "全台票話題口碑延燒的《屍速列車》，讓所有觀眾都愛上了片中奮不顧身救女兒的帥爸爸孔劉。一個怎夠看？送上六部電影裡的七種孔劉Look，眼睛睜大就是你的！",
            "category": "",
            "property": "news",
            "region": "TW",
            "editor": "YJFRYMUHEZKVEBNASU6KLT47I4",
            "poll_uuid": "",
            "ybrain_uuid": "",
            "tumblr_tag": "",
            "status": "active",
            "create_time": 1473167019,
            "modified_time": 1473732502,
            "bg_image": {
              "url": "https://s3.yimg.com/lo/api/res/1.2/qMeNAR2txud7f_fqWnYu8w--/YXBwaWQ9dHdhYnVuZXdz/https://s3.yimg.com/bt/api/res/1.2/aqsWny0wwgaRkiSX1qd3XQ--/YXBwaWQ9eW5ld3NfbGVnbztxPTg1O3c9NDUw/http://media.zenfs.com/zh-Hant_TW/News/YahooOmg/20160905160346_tw_omg_news_863353.jpg",
              "source": "車庫娛樂",
              "source_url": ""
            },
            "thumbnail": "https://s3.yimg.com/lo/api/res/1.2/gE75hryN3EYNif5j9fIHxg--/YXBwaWQ9dHdhYnVuZXdz/https://s1.yimg.com/lo/api/res/1.2/HLbfv4cruD6T3o75pc9rTw--/YXBwaWQ9eXR3ZnBhZ2U7dz01NjA7cXVhbGl0eT03NTtzbT0x/http://media.zenfs.com/zh-Hant-TW/homerun/movies.yahoo.tw/f0257807f021d22223d8c5df90bf2d43",
            "profile_id": "u160019",
            "internal": 0,
            "tags": [
              "電影"
            ],
            "user": {
              "guid": "YJFRYMUHEZKVEBNASU6KLT47I4",
              "nickname": "艾莫西",
              "icon": "https://s.yimg.com/yr/usericon/ba057d23-a8e2-46fd-8fcf-838aadfb2c6f.jpeg",
              "profile_id": "u160019"
            },
            "promote": 0,
            "liked": 9
          },
          {
            "id": "558bdd20-741a-11e6-b092-ed6e31c224c9",
            "title": "鐵道迷必看 日本特色電車大集合",
            "desc": "現在日本的火車不僅是與卡通聯名合作，和歌山縣新推出的鯛魚主題列車，結合鐵路沿線風景，再加上超卡哇伊的吉祥物，為當地帶來一番新風貌，而日本還有哪些特色列車等你去蒐集呢？一起來看看吧！",
            "category": "",
            "property": "news",
            "region": "TW",
            "editor": "VH3VTMVEPQK5FUFCQIOELX7VOU",
            "poll_uuid": "",
            "ybrain_uuid": "",
            "tumblr_tag": "",
            "status": "active",
            "create_time": 1473156713,
            "modified_time": 1473157981,
            "bg_image": {
              "url": "http://l.yimg.com/dh/ap/default/160906/jr-photo-01-2.jpg",
              "source": "",
              "source_url": ""
            },
            "thumbnail": "http://l.yimg.com/dh/ap/default/160906/p01.jpg",
            "profile_id": "u160029",
            "internal": 1,
            "tags": [
              "新聞"
            ],
            "user": {
              "guid": "VH3VTMVEPQK5FUFCQIOELX7VOU",
              "nickname": "Yahoo 奇摩新聞",
              "icon": "https://s.yimg.com/yr/usericon/c61800c8-2d40-4740-b27c-e8396987998c.jpeg",
              "profile_id": "u160029"
            },
            "promote": 0,
            "liked": 14
          },
          {
            "id": "c9b0e250-7405-11e6-a1ec-130631cec889",
            "title": "七個你不可不知的《情書》小祕密",
            "desc": "睽違20年，日本純愛電影《情書》即將於本週重返大銀幕！進戲院緬懷青春之前，先告訴你七個電影秘密，保證讓你的《情書》更動人！",
            "category": "",
            "property": "news",
            "region": "TW",
            "editor": "YJFRYMUHEZKVEBNASU6KLT47I4",
            "poll_uuid": "",
            "ybrain_uuid": "",
            "tumblr_tag": "",
            "status": "active",
            "create_time": 1473147888,
            "modified_time": 1473217614,
            "bg_image": {
              "url": "https://s1.yimg.com/lo/api/res/1.2/OPWeezntJZpi6pvJWOd7fg--/YXBwaWQ9dHdhYnVuZXdz/https://s.yimg.com/vu/movies/fp/mpost/64/51/6451.jpg",
              "source": "可樂電影",
              "source_url": ""
            },
            "thumbnail": "http://www.h4.dion.ne.jp/~wsdsck/contents/conntennts_log/2007/doremi03/d03img/letter.jpg",
            "profile_id": "u160019",
            "internal": 0,
            "tags": [
              "電影",
              "ymovie6451"
            ],
            "user": {
              "guid": "YJFRYMUHEZKVEBNASU6KLT47I4",
              "nickname": "艾莫西",
              "icon": "https://s.yimg.com/yr/usericon/ba057d23-a8e2-46fd-8fcf-838aadfb2c6f.jpeg",
              "profile_id": "u160019"
            },
            "promote": 0,
            "liked": 9
          },
          {
            "id": "3da9ed20-73ff-11e6-8076-cf6a7879d420",
            "title": "九年熬成超MAN票房巨星－－古天樂！",
            "desc": "作品多元多產的古天樂除了時裝喜劇、古裝劇情，更將帶來最新警匪衝突大作！",
            "category": "",
            "property": "news",
            "region": "TW",
            "editor": "2QUDICWBH4FNMUDO435OBU3CXU",
            "poll_uuid": "",
            "ybrain_uuid": "",
            "tumblr_tag": "",
            "status": "active",
            "create_time": 1473145076,
            "modified_time": 1473215850,
            "bg_image": {
              "url": "https://s1.yimg.com/lo/api/res/1.2/RougsBTnJ_NVIWhTVYUxsg--/YXBwaWQ9dHdhYnVuZXdz/https://s.yimg.com/vu/movies/fp/mpho/08/41/70841.jpg",
              "source": "Yahoo奇摩電影",
              "source_url": "https://s.yimg.com/vu/movies/fp/mpost/64/39/6439.jpg"
            },
            "thumbnail": "https://s.yimg.com/lo/api/res/1.2/M57izoeP71oIuQF6AcrCUA--/YXBwaWQ9dHdhYnVuZXdz/https://s.yimg.com/vu/movies/fp/mpost/64/39/6439.jpg",
            "profile_id": "u160030",
            "internal": 0,
            "tags": [
              "電影"
            ],
            "user": {
              "guid": "2QUDICWBH4FNMUDO435OBU3CXU",
              "nickname": "幕後黑手",
              "icon": "https://s.yimg.com/yr/usericon/6e8ee2e5-9878-4c76-89ef-87328b950de4.jpeg",
              "profile_id": "u160030"
            },
            "promote": 0,
            "liked": 6
          },
          {
            "id": "98f9df00-73eb-11e6-9122-db32ac7503aa",
            "title": "台灣的月亮就很圓！賞月熱點全攻略",
            "desc": "中秋連假近在眼前，四天連假不想只待在家裡吃月餅、剝柚子的話，還能去哪玩呢？小編整理了全台八處景點，快來看看有哪些賞月的好去處。",
            "category": "",
            "property": "news",
            "region": "TW",
            "editor": "VH3VTMVEPQK5FUFCQIOELX7VOU",
            "poll_uuid": "",
            "ybrain_uuid": "",
            "tumblr_tag": "",
            "status": "active",
            "create_time": 1473136640,
            "modified_time": 1473832534,
            "bg_image": {
              "url": "http://l.yimg.com/dh/ap/default/160905/0906moon.jpg",
              "source": "",
              "source_url": ""
            },
            "thumbnail": "http://l.yimg.com/dh/ap/default/160905/0906mooncover.jpg",
            "profile_id": "u160029",
            "internal": 1,
            "tags": [
              "新聞",
              "旅遊"
            ],
            "user": {
              "guid": "VH3VTMVEPQK5FUFCQIOELX7VOU",
              "nickname": "Yahoo 奇摩新聞",
              "icon": "https://s.yimg.com/yr/usericon/c61800c8-2d40-4740-b27c-e8396987998c.jpeg",
              "profile_id": "u160029"
            },
            "promote": 0,
            "liked": 4
          }
        ],
        "count": 20,
        "start": 0,
        "total": 211
      }
    ],
    "error": null
  }
}